<?xml version="1.0" encoding="UTF-8"?>
<ModuleFile xmlns:xsi="http://www.w3.org/2001/XMLSchema-instance">
<UiMod name="TidyRollSettings" version="1.0" date="04/17/2009" >
  
  <Author name="Raidez" email="raidez@mail.ru" />
  <Description text="TidyRoll's settings" />
  
  <VersionSettings gameVersion="1.3.6" windowsVersion="1.0" savedVariablesVersion="1.0" />
  
  <Files/>
  
  <Dependencies>
    <Dependency name="TidyRoll" />
  </Dependencies>

  <SavedVariables>
    <SavedVariable name="TidyRoll.Settings" />
  </SavedVariables>
  
  <OnInitialize/>
  <OnUpdate/>
  <OnShutdown/>

  <WARInfo>
    <Categories>
      <Category name="ITEMS_INVENTORY" />
    </Categories>
    <Careers>
      <Career name="BLACKGUARD" />
      <Career name="WITCH_ELF" />
      <Career name="DISCIPLE" />
      <Career name="SORCERER" />
      <Career name="IRON_BREAKER" />
      <Career name="SLAYER" />
      <Career name="RUNE_PRIEST" />
      <Career name="ENGINEER" />
      <Career name="BLACK_ORC" />
      <Career name="CHOPPA" />
      <Career name="SHAMAN" />
      <Career name="SQUIG_HERDER" />
      <Career name="WITCH_HUNTER" />
      <Career name="KNIGHT" />
      <Career name="BRIGHT_WIZARD" />
      <Career name="WARRIOR_PRIEST" />
      <Career name="CHOSEN" />
      <Career name="MARAUDER" />
      <Career name="ZEALOT" />
      <Career name="MAGUS" />
      <Career name="SWORDMASTER" />
      <Career name="SHADOW_WARRIOR" />
      <Career name="WHITE_LION" />
      <Career name="ARCHMAGE" />
    </Careers>
  </WARInfo>

</UiMod>
</ModuleFile> 